// Jest Snapshot v1, https://goo.gl/fbAQLP

exports[`<App /> App renders OK 1`] = `
<Component
  theme={
    Object {
      "colors": Object {
        "primary": "#031E44",
      },
      "logo": "https://dummyimage.com/320x200/031E44/ffffff.png&text=Logo",
    }
  }
>
  <BrowserRouter>
    <Router
      history={
        Object {
          "action": "POP",
          "block": [Function],
          "createHref": [Function],
          "go": [Function],
          "goBack": [Function],
          "goForward": [Function],
          "length": 1,
          "listen": [Function],
          "location": Object {
            "hash": "",
            "pathname": "/",
            "search": "",
            "state": undefined,
          },
          "push": [Function],
          "replace": [Function],
        }
      }
    >
      <Component>
        <App>
          <Component
            theme={
              Object {
                "colors": Object {
                  "primary": "#031E44",
                },
                "logo": "https://dummyimage.com/320x200/031E44/ffffff.png&text=Logo",
              }
            }
          >
            <Provider
              store={
                Object {
                  "@@observable": [Function],
                  "dispatch": [Function],
                  "getState": [Function],
                  "replaceReducer": [Function],
                  "subscribe": [Function],
                }
              }
            >
              <DefaultRouter>
                <BrowserRouter
                  basename="/publicium"
                >
                  <Router
                    history={
                      Object {
                        "action": "POP",
                        "block": [Function],
                        "createHref": [Function],
                        "go": [Function],
                        "goBack": [Function],
                        "goForward": [Function],
                        "length": 1,
                        "listen": [Function],
                        "location": Object {
                          "hash": "",
                          "pathname": "/",
                          "search": "",
                          "state": undefined,
                        },
                        "push": [Function],
                        "replace": [Function],
                      }
                    }
                  >
                    <Switch>
                      <Route
                        component={[Function]}
                        computedMatch={
                          Object {
                            "isExact": true,
                            "params": Object {},
                            "path": "/",
                            "url": "/",
                          }
                        }
                        location={
                          Object {
                            "hash": "",
                            "pathname": "/",
                            "search": "",
                            "state": undefined,
                          }
                        }
                        path="/"
                      >
                        <Home
                          history={
                            Object {
                              "action": "POP",
                              "block": [Function],
                              "createHref": [Function],
                              "go": [Function],
                              "goBack": [Function],
                              "goForward": [Function],
                              "length": 1,
                              "listen": [Function],
                              "location": Object {
                                "hash": "",
                                "pathname": "/",
                                "search": "",
                                "state": undefined,
                              },
                              "push": [Function],
                              "replace": [Function],
                            }
                          }
                          location={
                            Object {
                              "hash": "",
                              "pathname": "/",
                              "search": "",
                              "state": undefined,
                            }
                          }
                          match={
                            Object {
                              "isExact": true,
                              "params": Object {},
                              "path": "/",
                              "url": "/",
                            }
                          }
                        >
                          <styled.div>
                            <div
                              className="sc-hGPAah haNEaZ"
                            >
                              <Sidebar
                                navSection={0}
                              >
                                <styled.aside>
                                  <aside
                                    className="sc-bkkfTU etnQOM"
                                  >
                                    <styled.div>
                                      <div
                                        className="sc-ieebsP jXKQuK"
                                      />
                                    </styled.div>
                                    <styled.div
                                      span={3}
                                    >
                                      <div
                                        className="sc-dJjZJu myqPN"
                                        span={3}
                                      />
                                    </styled.div>
                                    <Nav
                                      section={0}
                                    >
                                      <styled.nav>
                                        <nav
                                          className="sc-eCImvq iQpdWd"
                                        >
                                          <Styled(Link)
                                            active={true}
                                            to="/"
                                          >
                                            <Link
                                              active={true}
                                              className="sc-jRQAMF jWYjbS"
                                              to="/"
                                            >
                                              <LinkAnchor
                                                active={true}
                                                className="sc-jRQAMF jWYjbS"
                                                href="/publicium/"
                                                navigate={[Function]}
                                              >
                                                <a
                                                  active={true}
                                                  className="sc-jRQAMF jWYjbS"
                                                  href="/publicium/"
                                                  onClick={[Function]}
                                                >
                                                  <img
                                                    alt="Home"
                                                    src="FILE_MOCK"
                                                  />
                                                </a>
                                              </LinkAnchor>
                                            </Link>
                                          </Styled(Link)>
                                          <Styled(Link)
                                            active={false}
                                            to="/games"
                                          >
                                            <Link
                                              active={false}
                                              className="sc-jRQAMF iYahCj"
                                              to="/games"
                                            >
                                              <LinkAnchor
                                                active={false}
                                                className="sc-jRQAMF iYahCj"
                                                href="/publicium/games"
                                                navigate={[Function]}
                                              >
                                                <a
                                                  active={false}
                                                  className="sc-jRQAMF iYahCj"
                                                  href="/publicium/games"
                                                  onClick={[Function]}
                                                >
                                                  <img
                                                    alt="Games"
                                                    src="FILE_MOCK"
                                                  />
                                                </a>
                                              </LinkAnchor>
                                            </Link>
                                          </Styled(Link)>
                                          <Styled(Link)
                                            active={false}
                                            to="/user/1/collection"
                                          >
                                            <Link
                                              active={false}
                                              className="sc-jRQAMF iYahCj"
                                              to="/user/1/collection"
                                            >
                                              <LinkAnchor
                                                active={false}
                                                className="sc-jRQAMF iYahCj"
                                                href="/publicium/user/1/collection"
                                                navigate={[Function]}
                                              >
                                                <a
                                                  active={false}
                                                  className="sc-jRQAMF iYahCj"
                                                  href="/publicium/user/1/collection"
                                                  onClick={[Function]}
                                                >
                                                  <img
                                                    alt="Collection"
                                                    src="FILE_MOCK"
                                                  />
                                                </a>
                                              </LinkAnchor>
                                            </Link>
                                          </Styled(Link)>
                                        </nav>
                                      </styled.nav>
                                    </Nav>
                                    <styled.div
                                      span={3}
                                    >
                                      <div
                                        className="sc-dJjZJu myqPN"
                                        span={3}
                                      />
                                    </styled.div>
                                    <UserMenu>
                                      <styled.div>
                                        <div
                                          className="sc-fotPbf dqJGEz"
                                        >
                                          <Link
                                            to="/user/1"
                                          >
                                            <LinkAnchor
                                              href="/publicium/user/1"
                                              navigate={[Function]}
                                            >
                                              <a
                                                href="/publicium/user/1"
                                                onClick={[Function]}
                                              >
                                                <styled.img
                                                  src="FILE_MOCK"
                                                >
                                                  <img
                                                    className="sc-fFehDp jUXpfj"
                                                    src="FILE_MOCK"
                                                  />
                                                </styled.img>
                                              </a>
                                            </LinkAnchor>
                                          </Link>
                                        </div>
                                      </styled.div>
                                    </UserMenu>
                                  </aside>
                                </styled.aside>
                              </Sidebar>
                              <styled.main>
                                <main
                                  className="sc-dlVyqM eyoSOx"
                                >
                                  <Search>
                                    <styled.header>
                                      <header
                                        className="sc-bdvvaa ljmGQW"
                                      >
                                        <SearchField>
                                          <styled.div>
                                            <div
                                              className="sc-gsDJrp bvIaLY"
                                            >
                                              <styled.input
                                                placeholder="Search"
                                              >
                                                <input
                                                  className="sc-dkPtyc TBhbV"
                                                  placeholder="Search"
                                                />
                                              </styled.input>
                                              <styled.button
                                                onClick={[Function]}
                                              >
                                                <button
                                                  className="sc-hKwCoD fjqrdq"
                                                  onClick={[Function]}
                                                />
                                              </styled.button>
                                            </div>
                                          </styled.div>
                                        </SearchField>
                                      </header>
                                    </styled.header>
                                  </Search>
                                  <styled.div>
                                    <div
                                      className="sc-jJoQpE dJouFJ"
                                    />
                                  </styled.div>
                                  <Sections>
                                    <Connect(TopGames)>
                                      <TopGames
                                        dispatch={[Function]}
                                        items={Array []}
                                        loading={true}
                                      >
                                        <styled.section>
                                          <section
                                            className="sc-kfPtPH holSQH"
                                          >
                                            <styled.h2>
                                              <h2
                                                className="sc-fKVsgm ivLzGF"
                                              >
                                                Top Games
                                              </h2>
                                            </styled.h2>
                                            <styled.div>
                                              <div
                                                className="sc-bBHwJV jAfHdx"
                                              >
                                                Loading...
                                              </div>
                                            </styled.div>
                                          </section>
                                        </styled.section>
                                      </TopGames>
                                    </Connect(TopGames)>
                                    <styled.div>
                                      <div
                                        className="sc-cxpRKc jODIDi"
                                      >
                                        <Connect(TopUploaders)>
                                          <TopUploaders
                                            dispatch={[Function]}
                                            items={Array []}
                                            loading={true}
                                          >
                                            <styled.div>
                                              <div
                                                className="sc-llYToB jEfobS"
                                              >
                                                <styled.h2>
                                                  <h2
                                                    className="sc-fKVsgm ivLzGF"
                                                  >
                                                    Top Uploaders
                                                  </h2>
                                                </styled.h2>
                                                <styled.div>
                                                  <div
                                                    className="sc-iJKOzS bFQRwh"
                                                  >
                                                    <styled.div>
                                                      <div
                                                        className="sc-giYgFv izCgqo"
                                                      >
                                                        <styled.div>
                                                          <div
                                                            className="sc-bYoCmx hdDheg"
                                                          >
                                                            Loading...
                                                          </div>
                                                        </styled.div>
                                                      </div>
                                                    </styled.div>
                                                  </div>
                                                </styled.div>
                                              </div>
                                            </styled.div>
                                          </TopUploaders>
                                        </Connect(TopUploaders)>
                                        <Connect(TopMaps)>
                                          <TopMaps
                                            dispatch={[Function]}
                                            items={Array []}
                                            loading={true}
                                          >
                                            <styled.div>
                                              <div
                                                className="sc-llYToB jEfobS"
                                              >
                                                <styled.h2>
                                                  <h2
                                                    className="sc-fKVsgm ivLzGF"
                                                  >
                                                    Top Maps
                                                  </h2>
                                                </styled.h2>
                                                <styled.div>
                                                  <div
                                                    className="sc-iJKOzS bFQRwh"
                                                  >
                                                    <styled.div>
                                                      <div
                                                        className="sc-giYgFv izCgqo"
                                                      >
                                                        <styled.div>
                                                          <div
                                                            className="sc-kLwgWK bHMDre"
                                                          >
                                                            Loading...
                                                          </div>
                                                        </styled.div>
                                                      </div>
                                                    </styled.div>
                                                  </div>
                                                </styled.div>
                                              </div>
                                            </styled.div>
                                          </TopMaps>
                                        </Connect(TopMaps)>
                                      </div>
                                    </styled.div>
                                  </Sections>
                                </main>
                              </styled.main>
                            </div>
                          </styled.div>
                        </Home>
                      </Route>
                    </Switch>
                  </Router>
                </BrowserRouter>
              </DefaultRouter>
            </Provider>
          </Component>
        </App>
      </Component>
    </Router>
  </BrowserRouter>
</Component>
`;
